{
    "name": "tico_4000",
    "images": ["https://files.catbox.moe/fbcz4t.png","https://files.catbox.moe/8kt9x1.png","https://files.catbox.moe/31i7j4.png"],
    "intro": "Ticoです<br>https://space.bilibili.com/293965437<br><br>by Zhuym @Zhuym_Daily"
}